[gd_scene load_steps=5 format=2]

[ext_resource path="res://Scripts/tutorial1.gd" type="Script" id=1]
[ext_resource path="res://Assets/ours/Background/background.jpg" type="Texture" id=2]
[ext_resource path="res://Scenes/Player_path.tscn" type="PackedScene" id=3]
[ext_resource path="res://Assets/ours/tutorial/text1.png" type="Texture" id=4]

[node name="CanvasLayer" type="CanvasLayer"]

layer = 1
offset = Vector2( 0, 0 )
rotation = 0.0
scale = Vector2( 1, 1 )
transform = Transform2D( 1, 0, 0, 1, 0, 0 )
script = ExtResource( 1 )

[node name="TextureRect" type="TextureRect" parent="." index="0"]

anchor_left = 0.0
anchor_top = 0.0
anchor_right = 0.0
anchor_bottom = 0.0
margin_left = 1.0
margin_right = 1921.0
margin_bottom = 1080.0
rect_rotation = 0.176856
rect_pivot_offset = Vector2( 0, 0 )
rect_clip_content = false
mouse_filter = 1
mouse_default_cursor_shape = 0
size_flags_horizontal = 1
size_flags_vertical = 1
texture = ExtResource( 2 )
stretch_mode = 0

[node name="Path2D" parent="." index="1" instance=ExtResource( 3 )]

position = Vector2( 569.386, 665.943 )

[node name="Timer" type="Timer" parent="." index="2"]

process_mode = 1
wait_time = 4.0
one_shot = false
autostart = false

[node name="text1" type="Sprite" parent="." index="3"]

self_modulate = Color( 1, 1, 1, 0 )
position = Vector2( 1003.11, 387.759 )
texture = ExtResource( 4 )
_sections_unfolded = [ "Animation", "Material", "Visibility" ]

[connection signal="timeout" from="Timer" to="." method="_on_Timer_timeout"]


[editable path="Path2D"]
